{
    "joints": {
        "id": "Neck",
        "in": [
            0.510652,
            0.413179
        ],
        "out": [
            [
                0.466513,
                0.961633,
                "ANY"
            ],
            [
                0.282838,
                0.837922,
                "ANY"
            ],
            [
                0.781282,
                0.842045,
                "ANY"
            ]
        ],
        "texture": "64"
    },
    "textures": [
        {
            "component":"Torso",
            "id":"64"
        }
    ]
}